[gd_resource type="Resource" script_class="SideScrollerMovementStats" load_steps=2 format=3 uid="uid://duqtegn4g2apy"]

[ext_resource type="Script" path="res://actors/components/movement/sidescroller_movement_stats.gd" id="1_ddvn3"]

[resource]
script = ExtResource("1_ddvn3")
max_speed = 400.0
move_acceleration = 0.3
move_deceleration = 0.1
jump_height = 200.0
jump_time_to_peak = 0.2
jump_time_to_descent = 0.4
coyote_time = 0.2
jump_buffer_time = 0.1
terminal_velocity = 1000.0
