[gd_scene load_steps=2 format=3 uid="uid://216u66j8o71m"]

[ext_resource type="Script" path="res://actors/components/movement/ledge_detector/ledge_detector.gd" id="1_1onuo"]

[node name="LedgeDetector" type="Node2D"]
script = ExtResource("1_1onuo")

[node name="LeftRaycast" type="RayCast2D" parent="."]
target_position = Vector2(0, 0)
collision_mask = 512

[node name="RightRaycast" type="RayCast2D" parent="."]
target_position = Vector2(0, 0)
collision_mask = 512
